module gitlab.com/asvedr/srv

go 1.24.0

require (
	github.com/stretchr/testify v1.10.0
	gitlab.com/asvedr/collections v0.8.0
)

require (
	github.com/davecgh/go-spew v1.1.1 // indirect
	github.com/pmezard/go-difflib v1.0.0 // indirect
	github.com/stretchr/objx v0.5.2 // indirect
	gopkg.in/yaml.v3 v3.0.1 // indirect
)
